{
	"name": "combatready",
	"title": "Combat Ready!",
	"description": "'<b><i>My Combat Tracker is Ready</i></b>' Combat ready indicator to remind players of their turn, as well as time taken. ",
	"version": "1.1",
	"author": "Ken L.",
	"socket": true,
	"languages": [
		{
			"lang": "en",
			"name": "English",
			"path": "lang/en.json"
		},
		{
			"lang": "ja",
			"name": "日本語 (Japanese)",
			"path": "lang/ja.json"
		},
		{
			"lang": "ko",
			"name": "한국어 (Korean)",
			"path": "lang/ko.json"
		},
		{
			"lang": "pt-BR",
			"name": "Português (Portuguese [Brasil])",
			"path": "lang/pt-BR.json"
		},
		{
			"lang": "fr",
			"name": "Français (French)",
			"path": "lang/fr.json"
		},
		{
			"lang": "nl",
			"name": "Nederlands (Dutch)",
			"path": "lang/nl.json"
		},
		{
			"lang": "it",
			"name": "Italiano (Italian)",
			"path": "lang/it.json"
		}
	],
	"scripts": [
		"greensock/dist/TweenMax.min.js",
		"combatready.js"
	],
	"styles" : ["combatready.css"],
	"packs": [],
	"url" : "https://gitlab.com/Ayanzo/combatready",
	"download" : "https://gitlab.com/Ayanzo/combatready/-/archive/master/combatready-master.zip",
	"manifest" : "https://gitlab.com/Ayanzo/combatready/raw/master/module.json"
}
